cov_report/bench.vcd
$date
	Wed Aug 11 22:16:59 2021
$end
$version
	ModelSim Version 10.5
$end
$timescale
	10ps
$end

$scope module tb_spi_top $end
$var parameter 5 ! SPI_RX_0 $end
$var parameter 5 " SPI_RX_1 $end
$var parameter 5 # SPI_RX_2 $end
$var parameter 5 $ SPI_RX_3 $end
$var parameter 5 % SPI_TX_0 $end
$var parameter 5 & SPI_TX_1 $end
$var parameter 5 ' SPI_TX_2 $end
$var parameter 5 ( SPI_TX_3 $end
$var parameter 5 ) SPI_CTRL $end
$var parameter 5 * SPI_DIVIDE $end
$var parameter 5 + SPI_SS $end
$var reg 1 , clk $end
$var reg 1 - rst $end
$var wire 1 . adr [31] $end
$var wire 1 / adr [30] $end
$var wire 1 0 adr [29] $end
$var wire 1 1 adr [28] $end
$var wire 1 2 adr [27] $end
$var wire 1 3 adr [26] $end
$var wire 1 4 adr [25] $end
$var wire 1 5 adr [24] $end
$var wire 1 6 adr [23] $end
$var wire 1 7 adr [22] $end
$var wire 1 8 adr [21] $end
$var wire 1 9 adr [20] $end
$var wire 1 : adr [19] $end
$var wire 1 ; adr [18] $end
$var wire 1 < adr [17] $end
$var wire 1 = adr [16] $end
$var wire 1 > adr [15] $end
$var wire 1 ? adr [14] $end
$var wire 1 @ adr [13] $end
$var wire 1 A adr [12] $end
$var wire 1 B adr [11] $end
$var wire 1 C adr [10] $end
$var wire 1 D adr [9] $end
$var wire 1 E adr [8] $end
$var wire 1 F adr [7] $end
$var wire 1 G adr [6] $end
$var wire 1 H adr [5] $end
$var wire 1 I adr [4] $end
$var wire 1 J adr [3] $end
$var wire 1 K adr [2] $end
$var wire 1 L adr [1] $end
$var wire 1 M adr [0] $end
$var wire 1 N dat_i [31] $end
$var wire 1 O dat_i [30] $end
$var wire 1 P dat_i [29] $end
$var wire 1 Q dat_i [28] $end
$var wire 1 R dat_i [27] $end
$var wire 1 S dat_i [26] $end
$var wire 1 T dat_i [25] $end
$var wire 1 U dat_i [24] $end
$var wire 1 V dat_i [23] $end
$var wire 1 W dat_i [22] $end
$var wire 1 X dat_i [21] $end
$var wire 1 Y dat_i [20] $end
$var wire 1 Z dat_i [19] $end
$var wire 1 [ dat_i [18] $end
$var wire 1 \ dat_i [17] $end
$var wire 1 ] dat_i [16] $end
$var wire 1 ^ dat_i [15] $end
$var wire 1 _ dat_i [14] $end
$var wire 1 ` dat_i [13] $end
$var wire 1 a dat_i [12] $end
$var wire 1 b dat_i [11] $end
$var wire 1 c dat_i [10] $end
$var wire 1 d dat_i [9] $end
$var wire 1 e dat_i [8] $end
$var wire 1 f dat_i [7] $end
$var wire 1 g dat_i [6] $end
$var wire 1 h dat_i [5] $end
$var wire 1 i dat_i [4] $end
$var wire 1 j dat_i [3] $end
$var wire 1 k dat_i [2] $end
$var wire 1 l dat_i [1] $end
$var wire 1 m dat_i [0] $end
$var wire 1 n dat_o [31] $end
$var wire 1 o dat_o [30] $end
$var wire 1 p dat_o [29] $end
$var wire 1 q dat_o [28] $end
$var wire 1 r dat_o [27] $end
$var wire 1 s dat_o [26] $end
$var wire 1 t dat_o [25] $end
$var wire 1 u dat_o [24] $end
$var wire 1 v dat_o [23] $end
$var wire 1 w dat_o [22] $end
$var wire 1 x dat_o [21] $end
$var wire 1 y dat_o [20] $end
$var wire 1 z dat_o [19] $end
$var wire 1 { dat_o [18] $end
$var wire 1 | dat_o [17] $end
$var wire 1 } dat_o [16] $end
$var wire 1 ~ dat_o [15] $end
$var wire 1 !! dat_o [14] $end
$var wire 1 "! dat_o [13] $end
$var wire 1 #! dat_o [12] $end
$var wire 1 $! dat_o [11] $end
$var wire 1 %! dat_o [10] $end
$var wire 1 &! dat_o [9] $end
$var wire 1 '! dat_o [8] $end
$var wire 1 (! dat_o [7] $end
$var wire 1 )! dat_o [6] $end
$var wire 1 *! dat_o [5] $end
$var wire 1 +! dat_o [4] $end
$var wire 1 ,! dat_o [3] $end
$var wire 1 -! dat_o [2] $end
$var wire 1 .! dat_o [1] $end
$var wire 1 /! dat_o [0] $end
$var wire 1 0! we $end
$var wire 1 1! sel [3] $end
$var wire 1 2! sel [2] $end
$var wire 1 3! sel [1] $end
$var wire 1 4! sel [0] $end
$var wire 1 5! stb $end
$var wire 1 6! cyc $end
$var wire 1 7! ack $end
$var wire 1 8! err $end
$var wire 1 9! int $end
$var wire 1 :! ss [7] $end
$var wire 1 ;! ss [6] $end
$var wire 1 <! ss [5] $end
$var wire 1 =! ss [4] $end
$var wire 1 >! ss [3] $end
$var wire 1 ?! ss [2] $end
$var wire 1 @! ss [1] $end
$var wire 1 A! ss [0] $end
$var wire 1 B! sclk $end
$var wire 1 C! mosi $end
$var wire 1 D! miso $end
$var reg 32 E! q [31:0] $end
$var reg 32 F! q1 [31:0] $end
$var reg 32 G! q2 [31:0] $end
$var reg 32 H! q3 [31:0] $end
$var reg 32 I! result [31:0] $end

$scope module i_spi_slave $end
$var parameter 32 J! Tp $end
$var wire 1 K! rst $end
$var wire 1 A! ss $end
$var wire 1 B! sclk $end
$var wire 1 C! mosi $end
$var reg 1 L! miso $end
$var reg 1 M! rx_negedge $end
$var reg 1 N! tx_negedge $end
$var reg 32 O! data [31:0] $end
$upscope $end
$upscope $end
$enddefinitions $end
#0
$dumpvars
0,
0-
bx E!
bx F!
bx G!
bx H!
b0 I!
xL!
0M!
0N!
bx O!
b0 !
b100 "
b1000 #
b1100 $
b0 %
b100 &
b1000 '
b1100 (
b10000 )
b10100 *
b11000 +
b1 J!
xM
xL
xK
xJ
xI
xH
xG
xF
xE
xD
xC
xB
xA
x@
x?
x>
x=
x<
x;
x:
x9
x8
x7
x6
x5
x4
x3
x2
x1
x0
x/
x.
xm
xl
xk
xj
xi
xh
xg
xf
xe
xd
xc
xb
xa
x`
x_
x^
x]
x\
x[
xZ
xY
xX
xW
xV
xU
xT
xS
xR
xQ
xP
xO
xN
x/!
x.!
x-!
x,!
x+!
x*!
x)!
x(!
x'!
x&!
x%!
x$!
x#!
x"!
x!!
x~
x}
x|
x{
xz
xy
xx
xw
xv
xu
xt
xs
xr
xq
xp
xo
xn
x0!
x4!
x3!
x2!
x1!
x5!
06!
x7!
08!
x9!
xA!
x@!
x?!
x>!
x=!
x<!
x;!
x:!
xB!
xC!
xD!
0K!
$end
#200
1-
1K!
#300
b0 O!
07!
09!
1A!
1@!
1?!
1>!
1=!
1<!
1;!
1:!
0m
0l
0k
0j
0i
0h
0g
0f
0e
0d
0c
0b
0a
0`
0_
0^
0]
0\
0[
0Z
0Y
0X
0W
0V
0U
0T
0S
0R
0Q
0P
0O
0N
0C!
0B!
#500
1,
#1000
0,
#1500
1,
#2000
0,
#2500
1,
#3000
0,
#3500
1,
#4000
0,
#4500
1,
#5000
0,
#5500
1,
#6000
0,
#6500
1,
#7000
0,
#7500
1,
#8000
0,
#8500
1,
#9000
0,
#9500
1,
#10000
0,
#10500
1,
#11000
0,
#11500
1,
#12000
0,
#12500
1,
#13000
0,
#13500
1,
#14000
0,
#14500
1,
#15000
0,
#15500
1,
#16000
0,
#16500
1,
#17000
0,
#17500
1,
#18000
0,
#18500
1,
#19000
0,
#19500
1,
0-
0K!
#20000
0,
#20500
1,
#20600
16!
15!
10!
14!
13!
12!
11!
0/!
0.!
0-!
0,!
0+!
0*!
0)!
0(!
0'!
0&!
0%!
0$!
0#!
0"!
0!!
0~
0}
0|
0{
0z
0y
0x
0w
0v
0u
0t
0s
0r
0q
0p
0o
0n
0M
0L
1K
0J
1I
0H
0G
0F
0E
0D
0C
0B
0A
0@
0?
0>
0=
0<
0;
0:
09
08
07
06
05
04
03
02
01
00
0/
0.
xm
xl
xk
xj
xi
xh
xg
xf
xe
xd
xc
xb
xa
x`
x_
x^
x]
x\
x[
xZ
xY
xX
xW
xV
xU
xT
xS
xR
xQ
xP
xO
xN
#21000
0,
#21500
1,
#21600
0m
0l
0k
0j
0i
0h
0g
0f
0e
0d
0c
0b
0a
0`
0_
0^
0]
0\
0[
0Z
0Y
0X
0W
0V
0U
0T
0S
0R
0Q
0P
0O
0N
17!
#22000
0,
#22500
1,
#22600
06!
x5!
x0!
x4!
x3!
x2!
x1!
x/!
x.!
x-!
x,!
x+!
x*!
x)!
x(!
x'!
x&!
x%!
x$!
x#!
x"!
x!!
x~
x}
x|
x{
xz
xy
xx
xw
xv
xu
xt
xs
xr
xq
xp
xo
xn
xM
xL
xK
xJ
xI
xH
xG
xF
xE
xD
xC
xB
xA
x@
x?
x>
x=
x<
x;
x:
x9
x8
x7
x6
x5
x4
x3
x2
x1
x0
x/
x.
07!
#22700
16!
15!
10!
14!
13!
12!
11!
0/!
1.!
0-!
1,!
1+!
0*!
1)!
0(!
0'!
0&!
0%!
0$!
0#!
0"!
0!!
0~
0}
0|
0{
0z
0y
0x
0w
0v
0u
0t
0s
0r
0q
0p
0o
0n
0M
0L
0K
0J
0I
0H
0G
0F
0E
0D
0C
0B
0A
0@
0?
0>
0=
0<
0;
0:
09
08
07
06
05
04
03
02
01
00
0/
0.
#23000
0,
#23500
1,
#23600
17!
#24000
0,
#24500
1,
#24600
06!
x5!
x0!
x4!
x3!
x2!
x1!
x/!
x.!
x-!
x,!
x+!
x*!
x)!
x(!
x'!
x&!
x%!
x$!
x#!
x"!
x!!
x~
x}
x|
x{
xz
xy
xx
xw
xv
xu
xt
xs
xr
xq
xp
xo
xn
xM
xL
xK
xJ
xI
xH
xG
xF
xE
xD
xC
xB
xA
x@
x?
x>
x=
x<
x;
x:
x9
x8
x7
x6
x5
x4
x3
x2
x1
x0
x/
x.
1l
1j
1i
1g
07!
#24700
16!
15!
10!
14!
13!
12!
11!
0/!
0.!
0-!
1,!
0+!
0*!
0)!
0(!
0'!
1&!
0%!
0$!
0#!
0"!
0!!
0~
0}
0|
0{
0z
0y
0x
0w
0v
0u
0t
0s
0r
0q
0p
0o
0n
0M
0L
0K
0J
1I
0H
0G
0F
0E
0D
0C
0B
0A
0@
0?
0>
0=
0<
0;
0:
09
08
07
06
05
04
03
02
01
00
0/
0.
#25000
0,
#25500
1,
#25600
17!
0l
0j
0i
0g
#26000
0,
#26500
1,
#26600
06!
x5!
x0!
x4!
x3!
x2!
x1!
x/!
x.!
x-!
x,!
x+!
x*!
x)!
x(!
x'!
x&!
x%!
x$!
x#!
x"!
x!!
x~
x}
x|
x{
xz
xy
xx
xw
xv
xu
xt
xs
xr
xq
xp
xo
xn
xM
xL
xK
xJ
xI
xH
xG
xF
xE
xD
xC
xB
xA
x@
x?
x>
x=
x<
x;
x:
x9
x8
x7
x6
x5
x4
x3
x2
x1
x0
x/
x.
07!
1j
1d
#26700
16!
15!
10!
14!
13!
12!
11!
1/!
0.!
0-!
0,!
0+!
0*!
0)!
0(!
0'!
0&!
0%!
0$!
0#!
0"!
0!!
0~
0}
0|
0{
0z
0y
0x
0w
0v
0u
0t
0s
0r
0q
0p
0o
0n
0M
0L
0K
1J
1I
0H
0G
0F
0E
0D
0C
0B
0A
0@
0?
0>
0=
0<
0;
0:
09
08
07
06
05
04
03
02
01
00
0/
0.
#27000
0,
#27500
1,
#27600
0A!
0j
0d
17!
#28000
0,
#28500
1,
#28600
06!
x5!
x0!
x4!
x3!
x2!
x1!
x/!
x.!
x-!
x,!
x+!
x*!
x)!
x(!
x'!
x&!
x%!
x$!
x#!
x"!
x!!
x~
x}
x|
x{
xz
xy
xx
xw
xv
xu
xt
xs
xr
xq
xp
xo
xn
xM
xL
xK
xJ
xI
xH
xG
xF
xE
xD
xC
xB
xA
x@
x?
x>
x=
x<
x;
x:
x9
x8
x7
x6
x5
x4
x3
x2
x1
x0
x/
x.
07!
1m
#28700
16!
15!
00!
14!
13!
12!
11!
0M
0L
1K
0J
1I
0H
0G
0F
0E
0D
0C
0B
0A
0@
0?
0>
0=
0<
0;
0:
09
08
07
06
05
04
03
02
01
00
0/
0.
#29000
0,
#29500
1,
#29600
0m
17!
#30000
0,
#30500
1,
#30600
06!
x5!
x0!
x4!
x3!
x2!
x1!
xM
xL
xK
xJ
xI
xH
xG
xF
xE
xD
xC
xB
xA
x@
x?
x>
x=
x<
x;
x:
x9
x8
x7
x6
x5
x4
x3
x2
x1
x0
x/
x.
07!
#30700
16!
15!
00!
14!
13!
12!
11!
0M
0L
0K
0J
0I
0H
0G
0F
0E
0D
0C
0B
0A
0@
0?
0>
0=
0<
0;
0:
09
08
07
06
05
04
03
02
01
00
0/
0.
#31000
0,
#31500
1,
#31600
1l
1j
1i
1g
17!
#32000
0,
#32500
1,
#32600
06!
x5!
x0!
x4!
x3!
x2!
x1!
xM
xL
xK
xJ
xI
xH
xG
xF
xE
xD
xC
xB
xA
x@
x?
x>
x=
x<
x;
x:
x9
x8
x7
x6
x5
x4
x3
x2
x1
x0
x/
x.
07!
#32700
16!
15!
00!
14!
13!
12!
11!
0M
0L
0K
0J
1I
0H
0G
0F
0E
0D
0C
0B
0A
0@
0?
0>
0=
0<
0;
0:
09
08
07
06
05
04
03
02
01
00
0/
0.
#33000
0,
#33500
1,
#33600
0l
0i
0g
1d
17!
#34000
0,
#34500
1,
#34600
06!
x5!
x0!
x4!
x3!
x2!
x1!
xM
xL
xK
xJ
xI
xH
xG
xF
xE
xD
xC
xB
xA
x@
x?
x>
x=
x<
x;
x:
x9
x8
x7
x6
x5
x4
x3
x2
x1
x0
x/
x.
07!
#34700
16!
15!
00!
14!
13!
12!
11!
0M
0L
0K
1J
1I
0H
0G
0F
0E
0D
0C
0B
0A
0@
0?
0>
0=
0<
0;
0:
09
08
07
06
05
04
03
02
01
00
0/
0.
#35000
0,
#35500
1,
#35600
1m
0j
0d
17!
#36000
0,
#36500
1,
#36600
1M!
b10100101100101100111111001011010 O!
06!
x5!
x0!
x4!
x3!
x2!
x1!
xM
xL
xK
xJ
xI
xH
xG
xF
xE
xD
xC
xB
xA
x@
x?
x>
x=
x<
x;
x:
x9
x8
x7
x6
x5
x4
x3
x2
x1
x0
x/
x.
07!
#36700
16!
15!
10!
14!
13!
12!
11!
0/!
0.!
0-!
1,!
0+!
0*!
0)!
0(!
1'!
1&!
0%!
0$!
0#!
0"!
0!!
0~
0}
0|
0{
0z
0y
0x
0w
0v
0u
0t
0s
0r
0q
0p
0o
0n
0M
0L
0K
0J
1I
0H
0G
0F
0E
0D
0C
0B
0A
0@
0?
0>
0=
0<
0;
0:
09
08
07
06
05
04
03
02
01
00
0/
0.
#37000
0,
#37500
1,
#37600
0m
1j
1d
17!
#38000
0,
#38500
1,
#38600
06!
x5!
x0!
x4!
x3!
x2!
x1!
x/!
x.!
x-!
x,!
x+!
x*!
x)!
x(!
x'!
x&!
x%!
x$!
x#!
x"!
x!!
x~
x}
x|
x{
xz
xy
xx
xw
xv
xu
xt
xs
xr
xq
xp
xo
xn
xM
xL
xK
xJ
xI
xH
xG
xF
xE
xD
xC
xB
xA
x@
x?
x>
x=
x<
x;
x:
x9
x8
x7
x6
x5
x4
x3
x2
x1
x0
x/
x.
07!
1e
#38700
16!
15!
00!
14!
13!
12!
11!
0M
0L
0K
0J
1I
0H
0G
0F
0E
0D
0C
0B
0A
0@
0?
0>
0=
0<
0;
0:
09
08
07
06
05
04
03
02
01
00
0/
0.
#39000
0,
#39500
1,
#39600
17!
1B!
#39700
1L!
1D!
#40000
0,
#40500
1,
#40600
b1100001000 E!
06!
x5!
x0!
x4!
x3!
x2!
x1!
xM
xL
xK
xJ
xI
xH
xG
xF
xE
xD
xC
xB
xA
x@
x?
x>
x=
x<
x;
x:
x9
x8
x7
x6
x5
x4
x3
x2
x1
x0
x/
x.
07!
0B!
#40700
b1001011001011001111110010110100 O!
#41000
0,
#41500
1,
#41600
16!
15!
00!
14!
13!
12!
11!
0M
0L
0K
0J
1I
0H
0G
0F
0E
0D
0C
0B
0A
0@
0?
0>
0=
0<
0;
0:
09
08
07
06
05
04
03
02
01
00
0/
0.
1C!
xm
xl
xk
xj
xi
xh
xg
xf
xe
xd
xc
xb
xa
x`
x_
x^
x]
x\
x[
xZ
xY
xX
xW
xV
xU
xT
xS
xR
xQ
xP
xO
xN
1B!
#41700
0L!
0D!
#42000
0,
#42500
1,
#42600
0m
0l
0k
1j
0i
0h
0g
0f
1e
1d
0c
0b
0a
0`
0_
0^
0]
0\
0[
0Z
0Y
0X
0W
0V
0U
0T
0S
0R
0Q
0P
0O
0N
17!
0B!
#42700
b10010110010110011111100101101001 O!
#43000
0,
#43500
1,
#43600
06!
x5!
x0!
x4!
x3!
x2!
x1!
xM
xL
xK
xJ
xI
xH
xG
xF
xE
xD
xC
xB
xA
x@
x?
x>
x=
x<
x;
x:
x9
x8
x7
x6
x5
x4
x3
x2
x1
x0
x/
x.
07!
0C!
1B!
#43700
1L!
1D!
#44000
0,
#44500
1,
#44600
16!
15!
00!
14!
13!
12!
11!
0M
0L
0K
0J
1I
0H
0G
0F
0E
0D
0C
0B
0A
0@
0?
0>
0=
0<
0;
0:
09
08
07
06
05
04
03
02
01
00
0/
0.
xm
xl
xk
xj
xi
xh
xg
xf
xe
xd
xc
xb
xa
x`
x_
x^
x]
x\
x[
xZ
xY
xX
xW
xV
xU
xT
xS
xR
xQ
xP
xO
xN
0B!
#44700
b101100101100111111001011010010 O!
#45000
0,
#45500
1,
#45600
1C!
0m
0l
0k
1j
0i
0h
0g
0f
1e
1d
0c
0b
0a
0`
0_
0^
0]
0\
0[
0Z
0Y
0X
0W
0V
0U
0T
0S
0R
0Q
0P
0O
0N
17!
1B!
#45700
0L!
0D!
#46000
0,
#46500
1,
#46600
06!
x5!
x0!
x4!
x3!
x2!
x1!
xM
xL
xK
xJ
xI
xH
xG
xF
xE
xD
xC
xB
xA
x@
x?
x>
x=
x<
x;
x:
x9
x8
x7
x6
x5
x4
x3
x2
x1
x0
x/
x.
07!
0B!
#46700
b1011001011001111110010110100101 O!
#47000
0,
#47500
1,
#47600
16!
15!
00!
14!
13!
12!
11!
0M
0L
0K
0J
1I
0H
0G
0F
0E
0D
0C
0B
0A
0@
0?
0>
0=
0<
0;
0:
09
08
07
06
05
04
03
02
01
00
0/
0.
xm
xl
xk
xj
xi
xh
xg
xf
xe
xd
xc
xb
xa
x`
x_
x^
x]
x\
x[
xZ
xY
xX
xW
xV
xU
xT
xS
xR
xQ
xP
xO
xN
1B!
#48000
0,
#48500
1,
#48600
0m
0l
0k
1j
0i
0h
0g
0f
1e
1d
0c
0b
0a
0`
0_
0^
0]
0\
0[
0Z
0Y
0X
0W
0V
0U
0T
0S
0R
0Q
0P
0O
0N
17!
0B!
#48700
b10110010110011111100101101001011 O!
#49000
0,
#49500
1,
#49600
06!
x5!
x0!
x4!
x3!
x2!
x1!
xM
xL
xK
xJ
xI
xH
xG
xF
xE
xD
xC
xB
xA
x@
x?
x>
x=
x<
x;
x:
x9
x8
x7
x6
x5
x4
x3
x2
x1
x0
x/
x.
07!
0C!
1B!
#49700
1L!
1D!
#50000
0,
#50500
1,
#50600
16!
15!
00!
14!
13!
12!
11!
0M
0L
0K
0J
1I
0H
0G
0F
0E
0D
0C
0B
0A
0@
0?
0>
0=
0<
0;
0:
09
08
07
06
05
04
03
02
01
00
0/
0.
xm
xl
xk
xj
xi
xh
xg
xf
xe
xd
xc
xb
xa
x`
x_
x^
x]
x\
x[
xZ
xY
xX
xW
xV
xU
xT
xS
xR
xQ
xP
xO
xN
0B!
#50700
b1100101100111111001011010010110 O!
#51000
0,
#51500
1,
#51600
1C!
0m
0l
0k
1j
0i
0h
0g
0f
1e
1d
0c
0b
0a
0`
0_
0^
0]
0\
0[
0Z
0Y
0X
0W
0V
0U
0T
0S
0R
0Q
0P
0O
0N
17!
1B!
#51700
0L!
0D!
#52000
0,
#52500
1,
#52600
06!
x5!
x0!
x4!
x3!
x2!
x1!
xM
xL
xK
xJ
xI
xH
xG
xF
xE
xD
xC
xB
xA
x@
x?
x>
x=
x<
x;
x:
x9
x8
x7
x6
x5
x4
x3
x2
x1
x0
x/
x.
07!
0B!
#52700
b11001011001111110010110100101101 O!
#53000
0,
#53500
1,
#53600
16!
15!
00!
14!
13!
12!
11!
0M
0L
0K
0J
1I
0H
0G
0F
0E
0D
0C
0B
0A
0@
0?
0>
0=
0<
0;
0:
09
08
07
06
05
04
03
02
01
00
0/
0.
0C!
xm
xl
xk
xj
xi
xh
xg
xf
xe
xd
xc
xb
xa
x`
x_
x^
x]
x\
x[
xZ
xY
xX
xW
xV
xU
xT
xS
xR
xQ
xP
xO
xN
1B!
#53700
1L!
1D!
#54000
0,
#54500
1,
#54600
0m
0l
0k
1j
0i
0h
0g
0f
1e
1d
0c
0b
0a
0`
0_
0^
0]
0\
0[
0Z
0Y
0X
0W
0V
0U
0T
0S
0R
0Q
0P
0O
0N
17!
0B!
#54700
b10010110011111100101101001011010 O!
#55000
0,
#55500
1,
#55600
06!
x5!
x0!
x4!
x3!
x2!
x1!
xM
xL
xK
xJ
xI
xH
xG
xF
xE
xD
xC
xB
xA
x@
x?
x>
x=
x<
x;
x:
x9
x8
x7
x6
x5
x4
x3
x2
x1
x0
x/
x.
07!
#56000
0,
#56500
1,
#56600
16!
15!
00!
14!
13!
12!
11!
0M
0L
0K
0J
1I
0H
0G
0F
0E
0D
0C
0B
0A
0@
0?
0>
0=
0<
0;
0:
09
08
07
06
05
04
03
02
01
00
0/
0.
xm
xl
xk
xj
xi
xh
xg
xf
xe
xd
xc
xb
xa
x`
x_
x^
x]
x\
x[
xZ
xY
xX
xW
xV
xU
xT
xS
xR
xQ
xP
xO
xN
#57000
0,
#57500
1,
#57600
1C!
0m
0l
0k
1j
0i
0h
0g
0f
0e
1d
0c
0b
0a
0`
0_
0^
0]
0\
0[
0Z
0Y
0X
0W
0V
0U
0T
0S
0R
0Q
0P
0O
0N
17!
#58000
0,
#58500
1,
#58600
b1000001000 E!
06!
x5!
x0!
x4!
x3!
x2!
x1!
xM
xL
xK
xJ
xI
xH
xG
xF
xE
xD
xC
xB
xA
x@
x?
x>
x=
x<
x;
x:
x9
x8
x7
x6
x5
x4
x3
x2
x1
x0
x/
x.
07!
#59000
0,
#59500
1,
#59600
16!
15!
00!
14!
13!
12!
11!
0M
0L
0K
0J
0I
0H
0G
0F
0E
0D
0C
0B
0A
0@
0?
0>
0=
0<
0;
0:
09
08
07
06
05
04
03
02
01
00
0/
0.
xm
xl
xk
xj
xi
xh
xg
xf
xe
xd
xc
xb
xa
x`
x_
x^
x]
x\
x[
xZ
xY
xX
xW
xV
xU
xT
xS
xR
xQ
xP
xO
xN
#60000
0,
#60500
1,
#60600
1m
0l
1k
0j
0i
1h
0g
1f
0e
0d
0c
0b
0a
0`
0_
0^
0]
0\
0[
0Z
0Y
0X
0W
0V
0U
0T
0S
0R
0Q
0P
0O
0N
17!
#61000
0,
#61500
1,
#61600
b10100101 E!
b10100101 I!
0M!
1N!
06!
x5!
x0!
x4!
x3!
x2!
x1!
xM
xL
xK
xJ
xI
xH
xG
xF
xE
xD
xC
xB
xA
x@
x?
x>
x=
x<
x;
x:
x9
x8
x7
x6
x5
x4
x3
x2
x1
x0
x/
x.
07!
#61700
16!
15!
10!
14!
13!
12!
11!
1/!
0.!
1-!
0,!
0+!
1*!
0)!
1(!
0'!
0&!
0%!
0$!
0#!
0"!
0!!
0~
0}
0|
0{
0z
0y
0x
0w
0v
0u
0t
0s
0r
0q
0p
0o
0n
0M
0L
0K
0J
0I
0H
0G
0F
0E
0D
0C
0B
0A
0@
0?
0>
0=
0<
0;
0:
09
08
07
06
05
04
03
02
01
00
0/
0.
#62000
0,
#62500
1,
#62600
17!
#63000
0,
#63500
1,
#63600
06!
x5!
x0!
x4!
x3!
x2!
x1!
x/!
x.!
x-!
x,!
x+!
x*!
x)!
x(!
x'!
x&!
x%!
x$!
x#!
x"!
x!!
x~
x}
x|
x{
xz
xy
xx
xw
xv
xu
xt
xs
xr
xq
xp
xo
xn
xM
xL
xK
xJ
xI
xH
xG
xF
xE
xD
xC
xB
xA
x@
x?
x>
x=
x<
x;
x:
x9
x8
x7
x6
x5
x4
x3
x2
x1
x0
x/
x.
07!
#63700
16!
15!
10!
14!
13!
12!
11!
0/!
0.!
0-!
1,!
0+!
0*!
0)!
0(!
0'!
0&!
1%!
0$!
0#!
0"!
0!!
0~
0}
0|
0{
0z
0y
0x
0w
0v
0u
0t
0s
0r
0q
0p
0o
0n
0M
0L
0K
0J
1I
0H
0G
0F
0E
0D
0C
0B
0A
0@
0?
0>
0=
0<
0;
0:
09
08
07
06
05
04
03
02
01
00
0/
0.
#64000
0,
#64500
1,
#64600
17!
0m
0k
1j
0h
0f
1d
#65000
0,
#65500
1,
#65600
06!
x5!
x0!
x4!
x3!
x2!
x1!
x/!
x.!
x-!
x,!
x+!
x*!
x)!
x(!
x'!
x&!
x%!
x$!
x#!
x"!
x!!
x~
x}
x|
x{
xz
xy
xx
xw
xv
xu
xt
xs
xr
xq
xp
xo
xn
xM
xL
xK
xJ
xI
xH
xG
xF
xE
xD
xC
xB
xA
x@
x?
x>
x=
x<
x;
x:
x9
x8
x7
x6
x5
x4
x3
x2
x1
x0
x/
x.
07!
0d
1c
#65700
16!
15!
10!
14!
13!
12!
11!
0/!
0.!
0-!
1,!
0+!
0*!
0)!
0(!
1'!
0&!
1%!
0$!
0#!
0"!
0!!
0~
0}
0|
0{
0z
0y
0x
0w
0v
0u
0t
0s
0r
0q
0p
0o
0n
0M
0L
0K
0J
1I
0H
0G
0F
0E
0D
0C
0B
0A
0@
0?
0>
0=
0<
0;
0:
09
08
07
06
05
04
03
02
01
00
0/
0.
#66000
0,
#66500
1,
#66600
17!
#67000
0,
#67500
1,
#67600
06!
x5!
x0!
x4!
x3!
x2!
x1!
x/!
x.!
x-!
x,!
x+!
x*!
x)!
x(!
x'!
x&!
x%!
x$!
x#!
x"!
x!!
x~
x}
x|
x{
xz
xy
xx
xw
xv
xu
xt
xs
xr
xq
xp
xo
xn
xM
xL
xK
xJ
xI
xH
xG
xF
xE
xD
xC
xB
xA
x@
x?
x>
x=
x<
x;
x:
x9
x8
x7
x6
x5
x4
x3
x2
x1
x0
x/
x.
1e
07!
#67700
16!
15!
00!
14!
13!
12!
11!
0M
0L
0K
0J
1I
0H
0G
0F
0E
0D
0C
0B
0A
0@
0?
0>
0=
0<
0;
0:
09
08
07
06
05
04
03
02
01
00
0/
0.
#68000
0,
#68500
1,
#68600
17!
1B!
#68700
b101100111111001011010010110101 O!
#69000
0,
#69500
1,
#69600
b10100001000 E!
06!
x5!
x0!
x4!
x3!
x2!
x1!
xM
xL
xK
xJ
xI
xH
xG
xF
xE
xD
xC
xB
xA
x@
x?
x>
x=
x<
x;
x:
x9
x8
x7
x6
x5
x4
x3
x2
x1
x0
x/
x.
0C!
07!
0B!
#69700
0L!
0D!
#70000
0,
#70500
1,
#70600
16!
15!
00!
14!
13!
12!
11!
0M
0L
0K
0J
1I
0H
0G
0F
0E
0D
0C
0B
0A
0@
0?
0>
0=
0<
0;
0:
09
08
07
06
05
04
03
02
01
00
0/
0.
xm
xl
xk
xj
xi
xh
xg
xf
xe
xd
xc
xb
xa
x`
x_
x^
x]
x\
x[
xZ
xY
xX
xW
xV
xU
xT
xS
xR
xQ
xP
xO
xN
1B!
#70700
b1011001111110010110100101101010 O!
#71000
0,
#71500
1,
#71600
1C!
0m
0l
0k
1j
0i
0h
0g
0f
1e
0d
1c
0b
0a
0`
0_
0^
0]
0\
0[
0Z
0Y
0X
0W
0V
0U
0T
0S
0R
0Q
0P
0O
0N
17!
0B!
#72000
0,
#72500
1,
#72600
06!
x5!
x0!
x4!
x3!
x2!
x1!
xM
xL
xK
xJ
xI
xH
xG
xF
xE
xD
xC
xB
xA
x@
x?
x>
x=
x<
x;
x:
x9
x8
x7
x6
x5
x4
x3
x2
x1
x0
x/
x.
07!
1B!
#72700
b10110011111100101101001011010101 O!
#73000
0,
#73500
1,
#73600
16!
15!
00!
14!
13!
12!
11!
0M
0L
0K
0J
1I
0H
0G
0F
0E
0D
0C
0B
0A
0@
0?
0>
0=
0<
0;
0:
09
08
07
06
05
04
03
02
01
00
0/
0.
0C!
xm
xl
xk
xj
xi
xh
xg
xf
xe
xd
xc
xb
xa
x`
x_
x^
x]
x\
x[
xZ
xY
xX
xW
xV
xU
xT
xS
xR
xQ
xP
xO
xN
0B!
#73700
1L!
1D!
#74000
0,
#74500
1,
#74600
0m
0l
0k
1j
0i
0h
0g
0f
1e
0d
1c
0b
0a
0`
0_
0^
0]
0\
0[
0Z
0Y
0X
0W
0V
0U
0T
0S
0R
0Q
0P
0O
0N
17!
1B!
#74700
b1100111111001011010010110101010 O!
#75000
0,
#75500
1,
#75600
06!
x5!
x0!
x4!
x3!
x2!
x1!
xM
xL
xK
xJ
xI
xH
xG
xF
xE
xD
xC
xB
xA
x@
x?
x>
x=
x<
x;
x:
x9
x8
x7
x6
x5
x4
x3
x2
x1
x0
x/
x.
07!
0B!
#75700
0L!
0D!
#76000
0,
#76500
1,
#76600
16!
15!
00!
14!
13!
12!
11!
0M
0L
0K
0J
1I
0H
0G
0F
0E
0D
0C
0B
0A
0@
0?
0>
0=
0<
0;
0:
09
08
07
06
05
04
03
02
01
00
0/
0.
xm
xl
xk
xj
xi
xh
xg
xf
xe
xd
xc
xb
xa
x`
x_
x^
x]
x\
x[
xZ
xY
xX
xW
xV
xU
xT
xS
xR
xQ
xP
xO
xN
1B!
#76700
b11001111110010110100101101010100 O!
#77000
0,
#77500
1,
#77600
1C!
0m
0l
0k
1j
0i
0h
0g
0f
1e
0d
1c
0b
0a
0`
0_
0^
0]
0\
0[
0Z
0Y
0X
0W
0V
0U
0T
0S
0R
0Q
0P
0O
0N
17!
0B!
#77700
1L!
1D!
#78000
0,
#78500
1,
